Classification Tree and Random Forest Modeling
…
# Define the parameter grid
tree_grid <- grid_regular(cost_complexity(),
                          tree_depth(),
                          levels = 5)
 print(tree_grid)  

# A tibble: 25 × 2
   cost_complexity tree_depth
             <dbl>      <int>
 1    0.0000000001          1
 2    0.0000000178          1
 3    0.00000316            1
 4    0.000562              1
 5    0.1                   1
 6    0.0000000001          4
 7    0.0000000178          4
 8    0.00000316            4
 9    0.000562              4
10    0.1                   4
# ℹ 15 more rows

# Tune the model                          
tree_res <- tune_grid(
  tree_workflow,
  resamples = tree_cv,
  grid = tree_grid,
  metrics = metric_set(mn_log_loss)
)

tree_metrics <- collect_metrics(tree_res)
print(tree_metrics)

# A tibble: 25 × 8
   cost_complexity tree_depth .metric     .estimator  mean     n std_err .config
             <dbl>      <int> <chr>       <chr>      <dbl> <int>   <dbl> <chr>  
 1    0.0000000001          1 mn_log_loss binary     0.404     5 9.73e-6 Prepro…
 2    0.0000000178          1 mn_log_loss binary     0.404     5 9.73e-6 Prepro…
 3    0.00000316            1 mn_log_loss binary     0.404     5 9.73e-6 Prepro…
 4    0.000562              1 mn_log_loss binary     0.404     5 9.73e-6 Prepro…
 5    0.1                   1 mn_log_loss binary     0.404     5 9.73e-6 Prepro…
 6    0.0000000001          4 mn_log_loss binary     0.404     5 9.73e-6 Prepro…
 7    0.0000000178          4 mn_log_loss binary     0.404     5 9.73e-6 Prepro…
 8    0.00000316            4 mn_log_loss binary     0.404     5 9.73e-6 Prepro…
 9    0.000562              4 mn_log_loss binary     0.404     5 9.73e-6 Prepro…
10    0.1                   4 mn_log_loss binary     0.404     5 9.73e-6 Prepro…
# ℹ 15 more rows
…
# Tuning results
# 5-fold cross-validation using stratification 
# A tibble: 5 × 4
  splits                 id    .metrics          .notes          
  <list>                 <chr> <list>            <list>          
1 <split [142059/35516]> Fold1 <tibble [25 × 6]> <tibble [0 × 3]>
2 <split [142059/35516]> Fold2 <tibble [25 × 6]> <tibble [0 × 3]>
3 <split [142060/35515]> Fold3 <tibble [25 × 6]> <tibble [0 × 3]>
4 <split [142061/35514]> Fold4 <tibble [25 × 6]> <tibble [0 × 3]>
5 <split [142061/35514]> Fold5 <tibble [25 × 6]> <tibble [0 × 3]>

print(tree_metrics)

# A tibble: 25 × 8
   cost_complexity tree_depth .metric     .estimator  mean     n std_err .config
             <dbl>      <int> <chr>       <chr>      <dbl> <int>   <dbl> <chr>  
 1    0.0000000001          1 mn_log_loss binary     0.404     5 9.73e-6 Prepro…
 2    0.0000000178          1 mn_log_loss binary     0.404     5 9.73e-6 Prepro…
 3    0.00000316            1 mn_log_loss binary     0.404     5 9.73e-6 Prepro…
 4    0.000562              1 mn_log_loss binary     0.404     5 9.73e-6 Prepro…
 5    0.1                   1 mn_log_loss binary     0.404     5 9.73e-6 Prepro…
 6    0.0000000001          4 mn_log_loss binary     0.404     5 9.73e-6 Prepro…
 7    0.0000000178          4 mn_log_loss binary     0.404     5 9.73e-6 Prepro…
 8    0.00000316            4 mn_log_loss binary     0.404     5 9.73e-6 Prepro…
 9    0.000562              4 mn_log_loss binary     0.404     5 9.73e-6 Prepro…
10    0.1                   4 mn_log_loss binary     0.404     5 9.73e-6 Prepro…
# ℹ 15 more rows
…
